{
  "mappings": {
    "_default_": {
      "_meta": {
        "version": "5.5.2"
      },
      "date_detection": false,
      "dynamic_templates": [
        {
          "strings_as_keyword": {
            "mapping": {
              "ignore_above": 1024,
              "type": "keyword"
            },
            "match_mapping_type": "string"
          }
        }
      ],
      "properties": {
        "@timestamp": {
          "type": "date"
        },
        "beat": {
          "properties": {
            "hostname": {
              "ignore_above": 1024,
              "type": "keyword"
            },
            "name": {
              "ignore_above": 1024,
              "type": "keyword"
            },
            "version": {
              "ignore_above": 1024,
              "type": "keyword"
            }
          }
        },
        "meta": {
          "properties": {
            "cloud": {
              "properties": {
                "availability_zone": {
                  "ignore_above": 1024,
                  "type": "keyword"
                },
                "instance_id": {
                  "ignore_above": 1024,
                  "type": "keyword"
                },
                "machine_type": {
                  "ignore_above": 1024,
                  "type": "keyword"
                },
                "project_id": {
                  "ignore_above": 1024,
                  "type": "keyword"
                },
                "provider": {
                  "ignore_above": 1024,
                  "type": "keyword"
                },
                "region": {
                  "ignore_above": 1024,
                  "type": "keyword"
                }
              }
            }
          }
        },
        "metricset": {
          "properties": {
            "host": {
              "ignore_above": 1024,
              "type": "keyword"
            },
            "module": {
              "ignore_above": 1024,
              "type": "keyword"
            },
            "name": {
              "ignore_above": 1024,
              "type": "keyword"
            },
            "namespace": {
              "ignore_above": 1024,
              "type": "keyword"
            },
            "rtt": {
              "type": "long"
            }
          }
        },
        "mssqlserver": {
          "properties": {
            "memorystats": {
              "properties": {
                "locked_pages_mb": {
                  "type": "long"
                },
                "memory_used_mb": {
                  "type": "long"
                },
                "process_physical_memory_low": {
                  "type": "boolean"
                },
                "process_virtual_memory_low": {
                  "type": "boolean"
                },
                "total_vas_mb": {
                  "type": "long"
                }
              }
            },
            "volumestats": {
              "properties": {
                "available_bytes": {
                  "type": "long"
                },
                "name": {
                  "ignore_above": 1024,
                  "type": "keyword"
                },
                "total_bytes": {
                  "type": "long"
                },
                "volume_mount_point": {
                  "ignore_above": 1024,
                  "type": "keyword"
                }
              }
            }
          }
        },
        "tags": {
          "ignore_above": 1024,
          "type": "keyword"
        },
        "type": {
          "ignore_above": 1024,
          "type": "keyword"
        }
      }
    }
  },
  "order": 0,
  "settings": {
    "index.mapping.total_fields.limit": 10000,
    "index.refresh_interval": "5s"
  },
  "template": "mssqlserverbeat-*"
}