{
  "title": "mssqlserverbeat-*",
  "timeFieldName": "@timestamp",
  "fieldFormatMap": "{\"@timestamp\": {\"id\": \"date\"}}",
  "fields": "[{\"aggregatable\": true, \"searchable\": true, \"indexed\": true, \"scripted\": false, \"count\": 0, \"analyzed\": false, \"name\": \"beat.name\", \"type\": \"string\", \"doc_values\": true}, {\"aggregatable\": true, \"searchable\": true, \"indexed\": true, \"scripted\": false, \"count\": 0, \"analyzed\": false, \"name\": \"beat.hostname\", \"type\": \"string\", \"doc_values\": true}, {\"aggregatable\": true, \"searchable\": true, \"indexed\": true, \"scripted\": false, \"count\": 0, \"analyzed\": false, \"name\": \"beat.version\", \"type\": \"string\", \"doc_values\": true}, {\"aggregatable\": true, \"searchable\": true, \"indexed\": true, \"scripted\": false, \"count\": 0, \"analyzed\": false, \"name\": \"@timestamp\", \"type\": \"date\", \"doc_values\": true}, {\"aggregatable\": true, \"searchable\": true, \"indexed\": true, \"scripted\": false, \"count\": 0, \"analyzed\": false, \"name\": \"tags\", \"type\": \"string\", \"doc_values\": true}, {\"aggregatable\": true, \"searchable\": true, \"indexed\": true, \"scripted\": false, \"count\": 0, \"analyzed\": false, \"name\": \"fields\", \"doc_values\": true}, {\"aggregatable\": true, \"searchable\": true, \"indexed\": true, \"scripted\": false, \"count\": 0, \"analyzed\": false, \"name\": \"meta.cloud.provider\", \"type\": \"string\", \"doc_values\": true}, {\"aggregatable\": true, \"searchable\": true, \"indexed\": true, \"scripted\": false, \"count\": 0, \"analyzed\": false, \"name\": \"meta.cloud.instance_id\", \"type\": \"string\", \"doc_values\": true}, {\"aggregatable\": true, \"searchable\": true, \"indexed\": true, \"scripted\": false, \"count\": 0, \"analyzed\": false, \"name\": \"meta.cloud.machine_type\", \"type\": \"string\", \"doc_values\": true}, {\"aggregatable\": true, \"searchable\": true, \"indexed\": true, \"scripted\": false, \"count\": 0, \"analyzed\": false, \"name\": \"meta.cloud.availability_zone\", \"type\": \"string\", \"doc_values\": true}, {\"aggregatable\": true, \"searchable\": true, \"indexed\": true, \"scripted\": false, \"count\": 0, \"analyzed\": false, \"name\": \"meta.cloud.project_id\", \"type\": \"string\", \"doc_values\": true}, {\"aggregatable\": true, \"searchable\": true, \"indexed\": true, \"scripted\": false, \"count\": 0, \"analyzed\": false, \"name\": \"meta.cloud.region\", \"type\": \"string\", \"doc_values\": true}, {\"aggregatable\": true, \"searchable\": true, \"indexed\": true, \"scripted\": false, \"count\": 0, \"analyzed\": false, \"name\": \"metricset.module\", \"type\": \"string\", \"doc_values\": true}, {\"aggregatable\": true, \"searchable\": true, \"indexed\": true, \"scripted\": false, \"count\": 0, \"analyzed\": false, \"name\": \"metricset.name\", \"type\": \"string\", \"doc_values\": true}, {\"aggregatable\": true, \"searchable\": true, \"indexed\": true, \"scripted\": false, \"count\": 0, \"analyzed\": false, \"name\": \"metricset.host\", \"type\": \"string\", \"doc_values\": true}, {\"aggregatable\": true, \"searchable\": true, \"indexed\": true, \"scripted\": false, \"count\": 0, \"analyzed\": false, \"name\": \"metricset.rtt\", \"type\": \"number\", \"doc_values\": true}, {\"aggregatable\": true, \"searchable\": true, \"indexed\": true, \"scripted\": false, \"count\": 0, \"analyzed\": false, \"name\": \"metricset.namespace\", \"type\": \"string\", \"doc_values\": true}, {\"aggregatable\": true, \"searchable\": true, \"indexed\": true, \"scripted\": false, \"count\": 0, \"analyzed\": false, \"name\": \"type\", \"type\": \"string\", \"doc_values\": true}, {\"aggregatable\": true, \"searchable\": true, \"indexed\": true, \"scripted\": false, \"count\": 0, \"analyzed\": false, \"name\": \"mssqlserver.memorystats.memory_used_mb\", \"type\": \"number\", \"doc_values\": true}, {\"aggregatable\": true, \"searchable\": true, \"indexed\": true, \"scripted\": false, \"count\": 0, \"analyzed\": false, \"name\": \"mssqlserver.memorystats.locked_pages_mb\", \"type\": \"number\", \"doc_values\": true}, {\"aggregatable\": true, \"searchable\": true, \"indexed\": true, \"scripted\": false, \"count\": 0, \"analyzed\": false, \"name\": \"mssqlserver.memorystats.total_vas_mb\", \"type\": \"number\", \"doc_values\": true}, {\"aggregatable\": true, \"searchable\": true, \"indexed\": true, \"scripted\": false, \"count\": 0, \"analyzed\": false, \"name\": \"mssqlserver.memorystats.process_physical_memory_low\", \"doc_values\": true}, {\"aggregatable\": true, \"searchable\": true, \"indexed\": true, \"scripted\": false, \"count\": 0, \"analyzed\": false, \"name\": \"mssqlserver.memorystats.process_virtual_memory_low\", \"doc_values\": true}, {\"aggregatable\": true, \"searchable\": true, \"indexed\": true, \"scripted\": false, \"count\": 0, \"analyzed\": false, \"name\": \"mssqlserver.volumestats.name\", \"type\": \"string\", \"doc_values\": true}, {\"aggregatable\": true, \"searchable\": true, \"indexed\": true, \"scripted\": false, \"count\": 0, \"analyzed\": false, \"name\": \"mssqlserver.volumestats.total_bytes\", \"type\": \"number\", \"doc_values\": true}, {\"aggregatable\": true, \"searchable\": true, \"indexed\": true, \"scripted\": false, \"count\": 0, \"analyzed\": false, \"name\": \"mssqlserver.volumestats.available_bytes\", \"type\": \"number\", \"doc_values\": true}, {\"aggregatable\": true, \"searchable\": true, \"indexed\": true, \"scripted\": false, \"count\": 0, \"analyzed\": false, \"name\": \"mssqlserver.volumestats.volume_mount_point\", \"type\": \"string\", \"doc_values\": true}, {\"aggregatable\": false, \"searchable\": false, \"indexed\": false, \"scripted\": false, \"count\": 0, \"analyzed\": false, \"name\": \"_id\", \"type\": \"string\", \"doc_values\": false}, {\"aggregatable\": true, \"searchable\": true, \"indexed\": false, \"scripted\": false, \"count\": 0, \"analyzed\": false, \"name\": \"_type\", \"type\": \"string\", \"doc_values\": false}, {\"aggregatable\": false, \"searchable\": false, \"indexed\": false, \"scripted\": false, \"count\": 0, \"analyzed\": false, \"name\": \"_index\", \"type\": \"string\", \"doc_values\": false}, {\"aggregatable\": false, \"searchable\": false, \"indexed\": false, \"scripted\": false, \"count\": 0, \"analyzed\": false, \"name\": \"_score\", \"type\": \"number\", \"doc_values\": false}]"
}